…
    ## # A tibble: 1 x 1
    ##       n
    ##   <int>
    ## 1   455

## Getting Count of all Connection by Company Name

``` r
df %>% 
  count(Company) %>% 
  arrange(-n)
```

    ## # A tibble: 359 x 2
    ##    Company                                                 n
    ##    <chr>                                               <int>
    ##  1 McGill University - Desautels Faculty of Management    15
    ##  2 SUNY New Paltz                                          9
    ##  3 Rogers Communications                                   6
    ##  4 Scotiabank                                              6
    ##  5 Air Transat                                             5
    ##  6 McGill University                                       5
    ##  7 McKesson Canada                                         5
    ##  8 Novartis                                                5
    ##  9 Freelance                                               4
    ## 10 Electronic Arts (EA)                                    3
    ## # ... with 349 more rows
…
